\relax 
\@writefile{lof}{\contentsline {figure}{\numberline {1}{\ignorespaces STA増加に伴うスループットの低下[7]\relax }}{2}}
\providecommand*\caption@xref[2]{\@setref\relax\@undefined{#1}}
\newlabel{CSMA}{{1}{2}}
\@writefile{lof}{\contentsline {figure}{\numberline {2}{\ignorespaces シミュレーションモデル\relax }}{3}}
\newlabel{zu1}{{2}{3}}
\@writefile{lot}{\contentsline {table}{\numberline {1}{\ignorespaces シミュレーション諸元\relax }}{3}}
\newlabel{tab:size}{{1}{3}}
\newlabel{masta}{{2}{3}}
\bibcite{jiyuu}{1}
\bibcite{techrept}{2}
\bibcite{latex}{3}
\bibcite{latex}{4}
\bibcite{latex}{5}
\bibcite{latex}{6}
\bibcite{latex}{7}
\@writefile{lof}{\contentsline {figure}{\numberline {3}{\ignorespaces チャネル選択の例\relax }}{4}}
\newlabel{zu0}{{3}{4}}
\@writefile{lof}{\contentsline {figure}{\numberline {4}{\ignorespaces 提案手法のフローチャート\relax }}{5}}
\newlabel{huro}{{4}{5}}
\@writefile{lof}{\contentsline {figure}{\numberline {5}{\ignorespaces 提案手法のチャネル選択\relax }}{5}}
\newlabel{hima}{{5}{5}}
\@writefile{lof}{\contentsline {figure}{\numberline {6}{\ignorespaces 混雑判定率\relax }}{5}}
\newlabel{busy}{{6}{5}}
